Análise de series temporais
…
# A fable: 8 x 6 [1Q]
# Key:     type, bedrooms, .model [1]
  type  bedrooms .model                       trimestre                MA  .mean
  <chr>    <int> <chr>                            <qtr>            <dist>  <dbl>
1 house        5 "ETS(box_cox(MA, 0) ~ seaso…   2018 Q2 t(N(14, 6.5e-05)) 1.03e6
2 house        5 "ETS(box_cox(MA, 0) ~ seaso…   2018 Q3 t(N(14, 0.00016)) 1.04e6
3 house        5 "ETS(box_cox(MA, 0) ~ seaso…   2018 Q4   t(N(14, 3e-04)) 1.05e6
4 house        5 "ETS(box_cox(MA, 0) ~ seaso…   2019 Q1 t(N(14, 0.00049)) 1.06e6
5 house        5 "ETS(box_cox(MA, 0) ~ seaso…   2019 Q2 t(N(14, 0.00073)) 1.07e6
6 house        5 "ETS(box_cox(MA, 0) ~ seaso…   2019 Q3   t(N(14, 0.001)) 1.08e6
7 house        5 "ETS(box_cox(MA, 0) ~ seaso…   2019 Q4  t(N(14, 0.0014)) 1.09e6
8 house        5 "ETS(box_cox(MA, 0) ~ seaso…   2020 Q1  t(N(14, 0.0019)) 1.10e6

# A dable: 44 x 8 [1Q]
# Key:     type, bedrooms, .model [1]
# :        box_cox(MA, 0) = lag(level, 1) + lag(slope, 1) + remainder
   type  bedrooms .model      trimestre `box_cox(MA, 0)` level   slope remainder
   <chr>    <int> <chr>           <qtr>            <dbl> <dbl>   <dbl>     <dbl>
 1 house        5 "ETS(box_c…   2007 Q2             NA    13.5 0.00444  NA      
 2 house        5 "ETS(box_c…   2007 Q3             13.5  13.5 0.00444  -1.15e-5
 3 house        5 "ETS(box_c…   2007 Q4             13.5  13.5 0.00341  -4.44e-3
 4 house        5 "ETS(box_c…   2008 Q1             13.5  13.5 0.00263  -3.41e-3
 5 house        5 "ETS(box_c…   2008 Q2             13.5  13.5 0.00202  -2.63e-3
 6 house        5 "ETS(box_c…   2008 Q3             13.5  13.5 0.00848   2.80e-2
 7 house        5 "ETS(box_c…   2008 Q4             13.5  13.5 0.00825  -1.01e-3
 8 house        5 "ETS(box_c…   2009 Q1             13.6  13.6 0.00815  -3.96e-4
 9 house        5 "ETS(box_c…   2009 Q2             13.5  13.5 0.00493  -1.40e-2
10 house        5 "ETS(box_c…   2009 Q3             13.5  13.5 0.00378  -4.98e-3
# ℹ 34 more rows
…
